#FIG 3.2
Portrait
Flush left
Inches
Letter
100.00
Single
0
1200 2
# polyline
2 1 0 0 7 7 999 0 20 4.0 0 0 0 0 0 5
	105 13534 4338 13534 4338 10263 105 10263 105 13534
# polyline
2 1 0 1 0 0 997 0 -1 4.0 0 0 0 0 0 100
	596 10754 629 10841 662 10880 695 10912 728 10941 
	761 10968 794 10994 827 11019 860 11043 893 11067 
	926 11090 959 11114 992 11137 1025 11160 1058 11182 
	1091 11205 1124 11228 1157 11250 1191 11273 1224 11295 
	1257 11317 1290 11339 1323 11361 1356 11383 1389 11405 
	1422 11427 1455 11448 1488 11470 1521 11491 1554 11513 
	1587 11534 1620 11555 1653 11576 1686 11597 1719 11618 
	1752 11639 1785 11660 1818 11680 1851 11700 1884 11721 
	1918 11741 1951 11761 1983 11781 2016 11801 2049 11821 
	2083 11841 2116 11861 2149 11881 2182 11900 2215 11920 
	2248 11939 2281 11959 2314 11979 2347 11998 2380 12018 
	2413 12038 2446 12058 2479 12077 2512 12097 2545 12117 
	2578 12137 2611 12157 2644 12177 2677 12197 2710 12217 
	2743 12238 2776 12258 2810 12279 2843 12300 2876 12321 
	2909 12341 2942 12362 2975 12384 3008 12405 3041 12426 
	3074 12448 3107 12470 3140 12492 3173 12513 3206 12535 
	3239 12557 3272 12579 3305 12600 3338 12622 3371 12644 
	3404 12666 3437 12688 3470 12709 3503 12730 3536 12751 
	3569 12771 3602 12791 3635 12811 3668 12830 3701 12849 
	3734 12867 3767 12884 3801 12900 3834 12916 3867 12930
# polyline
2 1 1 1 4 4 995 0 -1 4.0 0 0 0 0 0 100
	596 10754 629 10839 662 10877 695 10909 728 10938 
	761 10964 794 10990 827 11014 860 11038 893 11062 
	926 11085 959 11108 992 11131 1025 11154 1058 11176 
	1091 11199 1124 11221 1157 11243 1191 11266 1224 11288 
	1257 11310 1290 11332 1323 11354 1356 11376 1389 11397 
	1422 11419 1455 11440 1488 11462 1521 11483 1554 11504 
	1587 11525 1620 11546 1653 11567 1686 11588 1719 11609 
	1752 11629 1785 11650 1818 11670 1851 11691 1884 11711 
	1918 11731 1951 11751 1983 11770 2016 11790 2049 11810 
	2083 11829 2116 11849 2149 11868 2182 11888 2215 11907 
	2248 11926 2281 11946 2314 11965 2347 11985 2380 12004 
	2413 12024 2446 12043 2479 12063 2512 12083 2545 12102 
	2578 12122 2611 12142 2644 12163 2677 12183 2710 12203 
	2743 12224 2776 12244 2810 12265 2843 12286 2876 12306 
	2909 12325 2942 12344 2975 12363 3008 12383 3041 12403 
	3074 12422 3107 12443 3140 12463 3173 12484 3206 12505 
	3239 12526 3272 12548 3305 12570 3338 12593 3371 12616 
	3404 12639 3437 12663 3470 12687 3503 12711 3536 12736 
	3569 12761 3602 12783 3635 12804 3668 12825 3701 12838 
	3734 12850 3767 12862 3801 12874 3834 12885 3867 12898
# polyline
2 1 1 1 4 4 993 0 -1 4.0 0 0 0 0 0 100
	596 10754 629 10843 662 10882 695 10915 728 10945 
	761 10972 794 10998 827 11023 860 11048 893 11072 
	926 11096 959 11120 992 11143 1025 11166 1058 11189 
	1091 11212 1124 11235 1157 11258 1191 11280 1224 11302 
	1257 11325 1290 11347 1323 11369 1356 11391 1389 11413 
	1422 11435 1455 11457 1488 11478 1521 11500 1554 11521 
	1587 11543 1620 11564 1653 11585 1686 11606 1719 11627 
	1752 11649 1785 11670 1818 11691 1851 11712 1884 11733 
	1918 11753 1951 11774 1983 11795 2016 11815 2049 11836 
	2083 11856 2116 11876 2149 11897 2182 11917 2215 11937 
	2248 11957 2281 11977 2314 11997 2347 12017 2380 12037 
	2413 12057 2446 12077 2479 12097 2512 12117 2545 12137 
	2578 12157 2611 12177 2644 12197 2677 12217 2710 12237 
	2743 12258 2776 12278 2810 12298 2843 12319 2876 12339 
	2909 12360 2942 12381 2975 12404 3008 12427 3041 12451 
	3074 12474 3107 12497 3140 12520 3173 12543 3206 12565 
	3239 12587 3272 12609 3305 12631 3338 12652 3371 12672 
	3404 12692 3437 12712 3470 12730 3503 12748 3536 12765 
	3569 12781 3602 12797 3635 12814 3668 12835 3701 12859 
	3734 12883 3767 12906 3801 12927 3834 12946 3867 12963
# polyline
2 1 3 1 1 1 991 0 -1 4.0 0 0 0 0 0 100
	596 10754 629 10839 662 10877 695 10909 728 10937 
	761 10964 794 10989 827 11013 860 11037 893 11060 
	926 11083 959 11106 992 11129 1025 11151 1058 11174 
	1091 11196 1124 11219 1157 11241 1191 11263 1224 11285 
	1257 11307 1290 11330 1323 11351 1356 11373 1389 11395 
	1422 11417 1455 11438 1488 11460 1521 11481 1554 11503 
	1587 11523 1620 11544 1653 11565 1686 11586 1719 11606 
	1752 11626 1785 11646 1818 11666 1851 11686 1884 11705 
	1918 11725 1951 11745 1983 11764 2016 11783 2049 11803 
	2083 11822 2116 11842 2149 11861 2182 11881 2215 11900 
	2248 11920 2281 11939 2314 11959 2347 11979 2380 11998 
	2413 12018 2446 12038 2479 12058 2512 12079 2545 12098 
	2578 12119 2611 12139 2644 12159 2677 12179 2710 12199 
	2743 12219 2776 12238 2810 12258 2843 12278 2876 12298 
	2909 12318 2942 12337 2975 12357 3008 12377 3041 12397 
	3074 12418 3107 12438 3140 12459 3173 12480 3206 12501 
	3239 12523 3272 12545 3305 12568 3338 12591 3371 12614 
	3404 12637 3437 12661 3470 12685 3503 12710 3536 12734 
	3569 12759 3602 12784 3635 12807 3668 12824 3701 12838 
	3734 12850 3767 12862 3801 12874 3834 12885 3867 12898
# polyline
2 1 3 1 1 1 989 0 -1 4.0 0 0 0 0 0 100
	596 10754 629 10843 662 10882 695 10915 728 10945 
	761 10972 794 10999 827 11024 860 11049 893 11073 
	926 11098 959 11121 992 11145 1025 11168 1058 11191 
	1091 11214 1124 11237 1157 11260 1191 11282 1224 11304 
	1257 11327 1290 11349 1323 11371 1356 11393 1389 11415 
	1422 11436 1455 11458 1488 11480 1521 11502 1554 11523 
	1587 11545 1620 11566 1653 11588 1686 11609 1719 11630 
	1752 11652 1785 11673 1818 11694 1851 11715 1884 11736 
	1918 11757 1951 11778 1983 11798 2016 11819 2049 11839 
	2083 11860 2116 11880 2149 11900 2182 11920 2215 11940 
	2248 11959 2281 11979 2314 11999 2347 12018 2380 12038 
	2413 12057 2446 12076 2479 12096 2512 12115 2545 12135 
	2578 12155 2611 12175 2644 12195 2677 12215 2710 12236 
	2743 12257 2776 12278 2810 12299 2843 12321 2876 12343 
	2909 12365 2942 12388 2975 12410 3008 12433 3041 12456 
	3074 12478 3107 12501 3140 12524 3173 12546 3206 12569 
	3239 12591 3272 12612 3305 12634 3338 12654 3371 12675 
	3404 12695 3437 12714 3470 12732 3503 12750 3536 12767 
	3569 12783 3602 12799 3635 12815 3668 12836 3701 12860 
	3734 12883 3767 12906 3801 12927 3834 12946 3867 12963
# polyline
2 1 0 1 0 0 988 0 -1 4.0 0 0 0 0 0 2
	596 13043 3867 13043
# polyline
2 1 0 1 0 0 987 0 -1 4.0 0 0 0 0 0 2
	596 10754 3867 10754
# polyline
2 1 0 1 0 0 985 0 -1 4.0 0 0 0 0 0 2
	1107 13043 1107 13027
# polyline
2 1 0 1 0 0 984 0 -1 4.0 0 0 0 0 0 2
	1107 10754 1107 10770
# polyline
2 1 0 1 0 0 983 0 -1 4.0 0 0 0 0 0 2
	1648 13043 1648 13027
# polyline
2 1 0 1 0 0 982 0 -1 4.0 0 0 0 0 0 2
	1648 10754 1648 10770
# polyline
2 1 0 1 0 0 981 0 -1 4.0 0 0 0 0 0 2
	2189 13043 2189 13027
# polyline
2 1 0 1 0 0 980 0 -1 4.0 0 0 0 0 0 2
	2189 10754 2189 10770
# polyline
2 1 0 1 0 0 979 0 -1 4.0 0 0 0 0 0 2
	2730 13043 2730 13027
# polyline
2 1 0 1 0 0 978 0 -1 4.0 0 0 0 0 0 2
	2730 10754 2730 10770
# polyline
2 1 0 1 0 0 977 0 -1 4.0 0 0 0 0 0 2
	3271 13043 3271 13027
# polyline
2 1 0 1 0 0 976 0 -1 4.0 0 0 0 0 0 2
	3271 10754 3271 10770
# polyline
2 1 0 1 0 0 975 0 -1 4.0 0 0 0 0 0 2
	3813 13043 3813 13027
# polyline
2 1 0 1 0 0 974 0 -1 4.0 0 0 0 0 0 2
	3813 10754 3813 10770
# polyline
2 1 0 1 0 0 973 0 -1 4.0 0 0 0 0 0 2
	836 13043 836 13010
# polyline
2 1 0 1 0 0 972 0 -1 4.0 0 0 0 0 0 2
	836 10754 836 10786
# polyline
2 1 0 1 0 0 970 0 -1 4.0 0 0 0 0 0 2
	1377 13043 1377 13010
# polyline
2 1 0 1 0 0 969 0 -1 4.0 0 0 0 0 0 2
	1377 10754 1377 10786
# polyline
2 1 0 1 0 0 968 0 -1 4.0 0 0 0 0 0 2
	1918 13043 1918 13010
# polyline
2 1 0 1 0 0 967 0 -1 4.0 0 0 0 0 0 2
	1918 10754 1918 10786
# polyline
2 1 0 1 0 0 966 0 -1 4.0 0 0 0 0 0 2
	2460 13043 2460 13010
# polyline
2 1 0 1 0 0 965 0 -1 4.0 0 0 0 0 0 2
	2460 10754 2460 10786
# polyline
2 1 0 1 0 0 964 0 -1 4.0 0 0 0 0 0 2
	3001 13043 3001 13010
# polyline
2 1 0 1 0 0 963 0 -1 4.0 0 0 0 0 0 2
	3001 10754 3001 10786
# polyline
2 1 0 1 0 0 962 0 -1 4.0 0 0 0 0 0 2
	3542 13043 3542 13010
# polyline
2 1 0 1 0 0 961 0 -1 4.0 0 0 0 0 0 2
	3542 10754 3542 10786
# spline
3 4 0 0 0 0 960 0 20 4.0 0 0 0 12
	791 13102 791 13173 803 13173 803 13074 795 13074 
	792 13081 789 13087 785 13090 778 13092 769 13093 
		769 13102 791 13102
	 0  0  0  0  0  0  -1  -1 
	 -1  0  0  0
# polyline
2 1 0 0 0 0 958 0 20 4.0 0 0 0 0 0 5
	858 13159 843 13159 843 13173 858 13173 858 13159
# spline
3 4 0 0 0 0 957 0 20 4.0 0 0 0 12
	905 13102 905 13173 917 13173 917 13074 909 13074 
	907 13081 904 13087 899 13090 893 13092 883 13093 
		883 13102 905 13102
	 0  0  0  0  0  0  -1  -1 
	 -1  0  0  0
# spline
3 4 0 0 0 0 956 0 20 4.0 0 0 0 12
	1282 13102 1282 13173 1294 13173 1294 13074 1286 13074 
	1283 13081 1280 13087 1276 13090 1270 13092 1260 13093 
		1260 13102 1282 13102
	 0  0  0  0  0  0  -1  -1 
	 -1  0  0  0
# polyline
2 1 0 0 0 0 955 0 20 4.0 0 0 0 0 0 5
	1349 13159 1334 13159 1334 13173 1349 13173 1349 13159
# spline
3 4 0 0 0 0 954 0 20 4.0 0 0 0 12
	1396 13102 1396 13173 1408 13173 1408 13074 1400 13074 
	1398 13081 1395 13087 1391 13090 1384 13092 1375 13093 
		1375 13102 1396 13102
	 0  0  0  0  0  0  -1  -1 
	 -1  0  0  0
# spline
3 4 0 0 0 0 953 0 20 4.0 0 0 0 53
	1502 13076 1452 13076 1445 13129 1456 13129 1459 13125 
	1463 13123 1466 13121 1470 13120 1474 13120 1481 13121 
	1487 13124 1491 13129 1494 13135 1495 13143 1494 13151 
	1491 13157 1487 13162 1481 13165 1474 13166 1468 13165 
	1463 13163 1459 13160 1456 13155 1454 13149 1442 13149 
	1443 13154 1444 13157 1445 13160 1446 13162 1448 13165 
		1451 13169 1456 13172 1462 13174 1468 13176 1474 13176 
		1485 13175 1494 13170 1501 13163 1506 13153 1508 13141 
		1506 13131 1502 13122 1495 13115 1487 13110 1476 13109 
		1472 13109 1468 13110 1465 13111 1461 13113 1458 13115 
		1462 13088 1502 13088 1502 13076
	 0  0  0  0  0  -1  -1  -1 
	 0  0  -1  -1  -1  0  0  -1 
	 -1  -1  0  0  -1  -1  -1  0 
	 0  0  -1  -1  -1  0  0  -1 
	 -1  -1  0  0  -1  -1  -1  0 
	 0  -1  -1  -1  0  0  -1  -1 
	 -1  0  0  0  0
# spline
3 4 0 0 0 0 952 0 20 4.0 0 0 0 12
	1862 13102 1862 13173 1874 13173 1874 13074 1866 13074 
	1863 13081 1860 13087 1856 13090 1849 13092 1840 13093 
		1840 13102 1862 13102
	 0  0  0  0  0  0  -1  -1 
	 -1  0  0  0
# polyline
2 1 0 0 0 0 951 0 20 4.0 0 0 0 0 0 5
	1929 13159 1914 13159 1914 13173 1929 13173 1929 13159
# spline
3 4 0 0 0 0 950 0 20 4.0 0 0 0 62
	2010 13161 1959 13161 1960 13157 1962 13152 1965 13148 
	1970 13145 1976 13140 1990 13133 1998 13128 2003 13123 
	2007 13117 2010 13110 2011 13103 2010 13098 2009 13093 
	2007 13089 2005 13085 2002 13082 1998 13079 1994 13077 
	1990 13075 1985 13074 1979 13074 1972 13074 1966 13076 
	1961 13078 1956 13082 1952 13087 1951 13090 1949 13094 
	1948 13098 1948 13103 1947 13108 1959 13108 1960 13104 
	1960 13101 1961 13098 1961 13096 1962 13094 1965 13091 
	1967 13088 1971 13086 1975 13085 1979 13084 1985 13085 
	1991 13088 1995 13092 1997 13097 1998 13103 1998 13108 
	1996 13112 1994 13116 1990 13120 1985 13123 1972 13130 
	1962 13137 1954 13144 1949 13152 1946 13161 1945 13173 
		2010 13173 2010 13161
	 0  0  0  -1  -1  -1  0  0 
	 0  -1  -1  -1  0  0  -1  -1 
	 -1  0  0  -1  -1  -1  0  0 
	 -1  -1  -1  0  0  -1  -1  -1 
	 0  0  0  -1  -1  -1  0  0 
	 -1  -1  -1  0  0  -1  -1  -1 
	 0  0  -1  -1  -1  0  0  0 
	 -1  -1  -1  0  0  0
# spline
3 4 0 0 0 0 949 0 20 4.0 0 0 0 12
	2364 13102 2364 13173 2376 13173 2376 13074 2368 13074 
	2366 13081 2363 13087 2359 13090 2352 13092 2343 13093 
		2343 13102 2364 13102
	 0  0  0  0  0  0  -1  -1 
	 -1  0  0  0
# polyline
2 1 0 0 0 0 948 0 20 4.0 0 0 0 0 0 5
	2431 13159 2417 13159 2417 13173 2431 13173 2431 13159
# spline
3 4 0 0 0 0 947 0 20 4.0 0 0 0 62
	2513 13161 2461 13161 2463 13157 2465 13152 2468 13148 
	2473 13145 2479 13140 2493 13133 2500 13128 2506 13123 
	2510 13117 2513 13110 2513 13103 2513 13098 2512 13093 
	2510 13089 2507 13085 2504 13082 2501 13079 2497 13077 
	2492 13075 2487 13074 2482 13074 2475 13074 2469 13076 
	2463 13078 2459 13082 2455 13087 2453 13090 2452 13094 
	2451 13098 2450 13103 2450 13108 2462 13108 2462 13104 
	2463 13101 2463 13098 2464 13096 2465 13094 2467 13091 
	2470 13088 2474 13086 2477 13085 2482 13084 2488 13085 
	2493 13088 2497 13092 2500 13097 2501 13103 2500 13108 
	2499 13112 2496 13116 2493 13120 2488 13123 2475 13130 
	2465 13137 2457 13144 2452 13152 2449 13161 2448 13173 
		2513 13173 2513 13161
	 0  0  0  -1  -1  -1  0  0 
	 0  -1  -1  -1  0  0  -1  -1 
	 -1  0  0  -1  -1  -1  0  0 
	 -1  -1  -1  0  0  -1  -1  -1 
	 0  0  0  -1  -1  -1  0  0 
	 -1  -1  -1  0  0  -1  -1  -1 
	 0  0  -1  -1  -1  0  0  0 
	 -1  -1  -1  0  0  0
# spline
3 4 0 0 0 0 946 0 20 4.0 0 0 0 53
	2585 13076 2535 13076 2527 13129 2538 13129 2542 13125 
	2545 13123 2548 13121 2552 13120 2556 13120 2564 13121 
	2569 13124 2574 13129 2577 13135 2578 13143 2577 13151 
	2574 13157 2569 13162 2564 13165 2556 13166 2551 13165 
	2546 13163 2542 13160 2539 13155 2536 13149 2524 13149 
	2525 13154 2526 13157 2527 13160 2529 13162 2530 13165 
		2534 13169 2539 13172 2544 13174 2550 13176 2557 13176 
		2568 13175 2577 13170 2584 13163 2588 13153 2590 13141 
		2589 13131 2584 13122 2578 13115 2569 13110 2559 13109 
		2555 13109 2551 13110 2547 13111 2544 13113 2541 13115 
		2544 13088 2585 13088 2585 13076
	 0  0  0  0  0  -1  -1  -1 
	 0  0  -1  -1  -1  0  0  -1 
	 -1  -1  0  0  -1  -1  -1  0 
	 0  0  -1  -1  -1  0  0  -1 
	 -1  -1  0  0  -1  -1  -1  0 
	 0  -1  -1  -1  0  0  -1  -1 
	 -1  0  0  0  0
# spline
3 4 0 0 0 0 945 0 20 4.0 0 0 0 12
	2944 13102 2944 13173 2956 13173 2956 13074 2949 13074 
	2946 13081 2943 13087 2939 13090 2932 13092 2923 13093 
		2923 13102 2944 13102
	 0  0  0  0  0  0  -1  -1 
	 -1  0  0  0
# polyline
2 1 0 0 0 0 944 0 20 4.0 0 0 0 0 0 5
	3011 13159 2997 13159 2997 13173 3011 13173 3011 13159
# spline
3 4 0 0 0 0 943 0 20 4.0 0 0 0 81
	3054 13127 3055 13127 3060 13127 3067 13128 3073 13130 
	3077 13134 3080 13139 3081 13146 3080 13152 3077 13158 
	3073 13162 3067 13165 3060 13166 3053 13165 3048 13162 
	3044 13158 3041 13152 3040 13144 3028 13144 3028 13149 
	3029 13153 3030 13156 3031 13159 3032 13162 3035 13167 
	3040 13171 3046 13174 3052 13176 3060 13176 3071 13175 
	3080 13171 3087 13164 3091 13156 3093 13145 3092 13138 
	3090 13133 3087 13128 3083 13124 3076 13122 3081 13119 
	3085 13116 3088 13112 3089 13107 3090 13101 3089 13092 
	3085 13084 3079 13078 3070 13075 3060 13074 3050 13075 
	3041 13079 3035 13085 3031 13094 3030 13106 3042 13106 
	3042 13102 3042 13100 3043 13097 3043 13095 3044 13093 
		3046 13090 3049 13088 3052 13086 3056 13085 3060 13084 
		3066 13085 3071 13087 3075 13091 3077 13096 3078 13102 
		3077 13105 3076 13109 3075 13111 3073 13113 3070 13115 
		3068 13116 3065 13116 3062 13117 3058 13117 3054 13117 
		3054 13127
	 0  0  0  0  -1  -1  -1  0 
	 0  -1  -1  -1  0  0  -1  -1 
	 -1  0  0  0  -1  -1  -1  0 
	 0  -1  -1  -1  0  0  -1  -1 
	 -1  0  0  -1  -1  -1  0  0 
	 -1  -1  -1  0  0  -1  -1  -1 
	 0  0  -1  -1  -1  0  0  0 
	 -1  -1  -1  0  0  -1  -1  -1 
	 0  0  -1  -1  -1  0  0  -1 
	 -1  -1  0  0  -1  -1  -1  0 
	 0
# spline
3 4 0 0 0 0 942 0 20 4.0 0 0 0 12
	3446 13102 3446 13173 3458 13173 3458 13074 3451 13074 
	3448 13081 3445 13087 3441 13090 3434 13092 3425 13093 
		3425 13102 3446 13102
	 0  0  0  0  0  0  -1  -1 
	 -1  0  0  0
# polyline
2 1 0 0 0 0 941 0 20 4.0 0 0 0 0 0 5
	3513 13159 3499 13159 3499 13173 3513 13173 3513 13159
# spline
3 4 0 0 0 0 940 0 20 4.0 0 0 0 81
	3556 13127 3557 13127 3562 13127 3569 13128 3575 13130 
	3579 13134 3582 13139 3582 13146 3582 13152 3579 13158 
	3575 13162 3569 13165 3562 13166 3555 13165 3550 13162 
	3545 13158 3543 13152 3542 13144 3530 13144 3530 13149 
	3531 13153 3531 13156 3533 13159 3534 13162 3537 13167 
	3542 13171 3548 13174 3554 13176 3562 13176 3573 13175 
	3582 13171 3589 13164 3593 13156 3595 13145 3594 13138 
	3592 13133 3589 13128 3585 13124 3578 13122 3583 13119 
	3587 13116 3590 13112 3591 13107 3592 13101 3591 13092 
	3587 13084 3581 13078 3572 13075 3562 13074 3552 13075 
	3543 13079 3537 13085 3533 13094 3532 13106 3544 13106 
	3544 13102 3544 13100 3545 13097 3545 13095 3546 13093 
		3548 13090 3551 13088 3554 13086 3558 13085 3562 13084 
		3568 13085 3573 13087 3577 13091 3579 13096 3580 13102 
		3579 13105 3578 13109 3577 13111 3575 13113 3572 13115 
		3570 13116 3567 13116 3564 13117 3560 13117 3556 13117 
		3556 13127
	 0  0  0  0  -1  -1  -1  0 
	 0  -1  -1  -1  0  0  -1  -1 
	 -1  0  0  0  -1  -1  -1  0 
	 0  -1  -1  -1  0  0  -1  -1 
	 -1  0  0  -1  -1  -1  0  0 
	 -1  -1  -1  0  0  -1  -1  -1 
	 0  0  -1  -1  -1  0  0  0 
	 -1  -1  -1  0  0  -1  -1  -1 
	 0  0  -1  -1  -1  0  0  -1 
	 -1  -1  0  0  -1  -1  -1  0 
	 0
# spline
3 4 0 0 0 0 939 0 20 4.0 0 0 0 53
	3667 13076 3617 13076 3609 13129 3621 13129 3624 13125 
	3627 13123 3630 13121 3634 13120 3639 13120 3646 13121 
	3652 13124 3656 13129 3659 13135 3660 13143 3659 13151 
	3656 13157 3652 13162 3646 13165 3639 13166 3633 13165 
	3628 13163 3624 13160 3621 13155 3618 13149 3606 13149 
	3607 13154 3608 13157 3609 13160 3611 13162 3612 13165 
		3616 13169 3621 13172 3626 13174 3632 13176 3639 13176 
		3650 13175 3659 13170 3666 13163 3671 13153 3672 13141 
		3671 13131 3666 13122 3660 13115 3651 13110 3641 13109 
		3637 13109 3633 13110 3629 13111 3626 13113 3623 13115 
		3627 13088 3667 13088 3667 13076
	 0  0  0  0  0  -1  -1  -1 
	 0  0  -1  -1  -1  0  0  -1 
	 -1  -1  0  0  -1  -1  -1  0 
	 0  0  -1  -1  -1  0  0  -1 
	 -1  -1  0  0  -1  -1  -1  0 
	 0  -1  -1  -1  0  0  -1  -1 
	 -1  0  0  0  0
# polyline
2 1 0 1 0 0 938 0 -1 4.0 0 0 0 0 0 2
	596 13043 596 10754
# polyline
2 1 0 1 0 0 937 0 -1 4.0 0 0 0 0 0 2
	3867 13043 3867 10754
# polyline
2 1 0 1 0 0 935 0 -1 4.0 0 0 0 0 0 2
	596 12735 612 12735
# polyline
2 1 0 1 0 0 934 0 -1 4.0 0 0 0 0 0 2
	3867 12735 3850 12735
# polyline
2 1 0 1 0 0 933 0 -1 4.0 0 0 0 0 0 2
	596 12295 612 12295
# polyline
2 1 0 1 0 0 932 0 -1 4.0 0 0 0 0 0 2
	3867 12295 3850 12295
# polyline
2 1 0 1 0 0 931 0 -1 4.0 0 0 0 0 0 2
	596 11854 612 11854
# polyline
2 1 0 1 0 0 930 0 -1 4.0 0 0 0 0 0 2
	3867 11854 3850 11854
# polyline
2 1 0 1 0 0 929 0 -1 4.0 0 0 0 0 0 2
	596 11414 612 11414
# polyline
2 1 0 1 0 0 928 0 -1 4.0 0 0 0 0 0 2
	3867 11414 3850 11414
# polyline
2 1 0 1 0 0 927 0 -1 4.0 0 0 0 0 0 2
	596 10974 612 10974
# polyline
2 1 0 1 0 0 926 0 -1 4.0 0 0 0 0 0 2
	3867 10974 3850 10974
# polyline
2 1 0 1 0 0 925 0 -1 4.0 0 0 0 0 0 2
	596 12955 629 12955
# polyline
2 1 0 1 0 0 924 0 -1 4.0 0 0 0 0 0 2
	3867 12955 3834 12955
# polyline
2 1 0 1 0 0 922 0 -1 4.0 0 0 0 0 0 2
	596 12515 629 12515
# polyline
2 1 0 1 0 0 921 0 -1 4.0 0 0 0 0 0 2
	3867 12515 3834 12515
# polyline
2 1 0 1 0 0 920 0 -1 4.0 0 0 0 0 0 2
	596 12074 629 12074
# polyline
2 1 0 1 0 0 919 0 -1 4.0 0 0 0 0 0 2
	3867 12074 3834 12074
# polyline
2 1 0 1 0 0 918 0 -1 4.0 0 0 0 0 0 2
	596 11634 629 11634
# polyline
2 1 0 1 0 0 917 0 -1 4.0 0 0 0 0 0 2
	3867 11634 3834 11634
# polyline
2 1 0 1 0 0 916 0 -1 4.0 0 0 0 0 0 2
	596 11194 629 11194
# polyline
2 1 0 1 0 0 915 0 -1 4.0 0 0 0 0 0 2
	3867 11194 3834 11194
# polyline
2 1 0 1 0 0 914 0 -1 4.0 0 0 0 0 0 2
	596 10754 629 10754
# polyline
2 1 0 1 0 0 913 0 -1 4.0 0 0 0 0 0 2
	3867 10754 3834 10754
# polyline
2 1 0 0 0 0 912 0 20 4.0 0 0 0 0 0 5
	410 12959 377 12959 377 12969 410 12969 410 12959
# spline
3 4 0 0 0 0 910 0 20 4.0 0 0 0 62
	486 12990 435 12990 436 12985 438 12981 442 12977 
	446 12973 453 12969 466 12961 474 12957 479 12951 
	484 12945 486 12939 487 12931 487 12927 485 12922 
	483 12917 481 12914 478 12910 474 12907 470 12905 
	466 12904 461 12903 456 12902 449 12903 442 12904 
	437 12907 432 12911 429 12915 427 12919 425 12922 
	424 12926 424 12931 423 12937 436 12937 436 12933 
	436 12930 437 12927 438 12925 438 12923 441 12919 
	444 12917 447 12915 451 12913 455 12913 461 12914 
	467 12916 471 12920 473 12926 474 12932 474 12936 
	472 12941 470 12945 466 12948 461 12951 449 12959 
	438 12966 431 12973 426 12981 423 12990 421 13001 
		486 13001 486 12990
	 0  0  0  -1  -1  -1  0  0 
	 0  -1  -1  -1  0  0  -1  -1 
	 -1  0  0  -1  -1  -1  0  0 
	 -1  -1  -1  0  0  -1  -1  -1 
	 0  0  0  -1  -1  -1  0  0 
	 -1  -1  -1  0  0  -1  -1  -1 
	 0  0  -1  -1  -1  0  0  0 
	 -1  -1  -1  0  0  0
# spline
3 4 0 0 0 0 909 0 20 4.0 0 0 0 53
	558 12904 508 12904 501 12957 512 12957 515 12954 
	519 12951 522 12950 526 12949 530 12948 537 12949 
	543 12952 547 12957 550 12964 551 12972 550 12979 
	547 12986 543 12990 537 12993 530 12994 524 12994 
	519 12992 515 12988 512 12984 510 12978 498 12978 
	499 12982 500 12986 501 12989 502 12991 504 12993 
		507 12997 512 13001 518 13003 524 13004 530 13005 
		541 13003 550 12999 557 12991 562 12982 564 12970 
		562 12959 558 12950 551 12943 543 12939 532 12937 
		528 12938 524 12938 521 12940 517 12941 514 12943 
		518 12916 558 12916 558 12904
	 0  0  0  0  0  -1  -1  -1 
	 0  0  -1  -1  -1  0  0  -1 
	 -1  -1  0  0  -1  -1  -1  0 
	 0  0  -1  -1  -1  0  0  -1 
	 -1  -1  0  0  -1  -1  -1  0 
	 0  -1  -1  -1  0  0  -1  -1 
	 -1  0  0  0  0
# polyline
2 1 0 0 0 0 908 0 20 4.0 0 0 0 0 0 5
	411 12519 378 12519 378 12528 411 12528 411 12519
# spline
3 4 0 0 0 0 906 0 20 4.0 0 0 0 62
	487 12550 436 12550 437 12545 439 12541 443 12537 
	448 12533 454 12529 468 12521 475 12516 481 12511 
	485 12505 487 12498 488 12491 488 12486 487 12482 
	485 12477 482 12473 479 12470 475 12467 471 12465 
	467 12463 462 12462 457 12462 450 12463 444 12464 
	438 12467 434 12470 430 12475 428 12478 427 12482 
	426 12486 425 12491 425 12496 437 12496 437 12493 
	438 12490 438 12487 439 12484 440 12482 442 12479 
	445 12476 448 12474 452 12473 456 12473 463 12474 
	468 12476 472 12480 475 12485 476 12491 475 12496 
	474 12500 471 12504 467 12508 463 12511 450 12519 
	439 12525 432 12532 427 12540 424 12550 423 12561 
		487 12561 487 12550
	 0  0  0  -1  -1  -1  0  0 
	 0  -1  -1  -1  0  0  -1  -1 
	 -1  0  0  -1  -1  -1  0  0 
	 -1  -1  -1  0  0  -1  -1  -1 
	 0  0  0  -1  -1  -1  0  0 
	 -1  -1  -1  0  0  -1  -1  -1 
	 0  0  -1  -1  -1  0  0  0 
	 -1  -1  -1  0  0  0
# spline
3 4 0 0 0 0 905 0 20 4.0 0 0 0 32
	532 12462 527 12463 522 12464 517 12466 513 12469 
	510 12473 506 12479 504 12486 502 12494 501 12503 
	500 12513 502 12532 505 12546 512 12556 521 12563 
	532 12565 543 12563 552 12556 559 12546 563 12532 
	564 12514 564 12503 563 12494 561 12486 558 12479 
	554 12473 551 12469 547 12466 543 12464 537 12463 
	532 12462 532 12462
	 0  0  -1  -1  -1  0  0  -1 
	 -1  -1  0  0  -1  -1  -1  0 
	 0  -1  -1  -1  0  0  -1  -1 
	 -1  0  0  -1  -1  -1  0  0
# spline
3 4 0 0 0 0 903 0 20 4.0 0 0 0 22
	532 12473 539 12474 545 12479 548 12487 551 12499 
	552 12513 551 12528 548 12540 545 12548 539 12553 
	532 12555 525 12553 519 12548 516 12540 513 12528 
	513 12514 513 12499 516 12487 520 12479 525 12474 
	532 12473 532 12473
	 0  0  -1  -1  -1  0  0  -1 
	 -1  -1  0  0  -1  -1  -1  0 
	 0  -1  -1  -1  0  0
# polyline
2 1 0 0 0 0 902 0 20 4.0 0 0 0 0 0 5
	410 12079 377 12079 377 12089 410 12089 410 12079
# spline
3 4 0 0 0 0 900 0 20 4.0 0 0 0 12
	452 12051 452 12122 464 12122 464 12023 456 12023 
	454 12030 451 12035 447 12039 440 12041 431 12042 
		431 12051 452 12051
	 0  0  0  0  0  0  -1  -1 
	 -1  0  0  0
# spline
3 4 0 0 0 0 899 0 20 4.0 0 0 0 53
	558 12025 508 12025 501 12077 512 12077 515 12074 
	519 12072 522 12070 526 12069 530 12069 537 12070 
	543 12073 547 12077 550 12084 551 12092 550 12100 
	547 12106 543 12111 537 12113 530 12114 524 12114 
	519 12112 515 12109 512 12104 510 12098 498 12098 
	499 12102 500 12106 501 12109 502 12111 504 12113 
		507 12118 512 12121 518 12123 524 12125 530 12125 
		541 12123 550 12119 557 12111 562 12102 564 12090 
		562 12079 558 12070 551 12064 543 12059 532 12058 
		528 12058 524 12059 521 12060 517 12061 514 12064 
		518 12036 558 12036 558 12025
	 0  0  0  0  0  -1  -1  -1 
	 0  0  -1  -1  -1  0  0  -1 
	 -1  -1  0  0  -1  -1  -1  0 
	 0  0  -1  -1  -1  0  0  -1 
	 -1  -1  0  0  -1  -1  -1  0 
	 0  -1  -1  -1  0  0  -1  -1 
	 -1  0  0  0  0
# polyline
2 1 0 0 0 0 898 0 20 4.0 0 0 0 0 0 5
	411 11638 378 11638 378 11648 411 11648 411 11638
# spline
3 4 0 0 0 0 896 0 20 4.0 0 0 0 12
	454 11611 454 11681 466 11681 466 11582 458 11582 
	455 11590 452 11595 448 11598 441 11600 432 11602 
		432 11611 454 11611
	 0  0  0  0  0  0  -1  -1 
	 -1  0  0  0
# spline
3 4 0 0 0 0 895 0 20 4.0 0 0 0 32
	532 11582 527 11582 522 11584 517 11586 513 11589 
	510 11593 506 11599 504 11606 502 11614 501 11623 
	500 11633 502 11652 505 11666 512 11676 521 11682 
	532 11685 543 11682 552 11676 559 11666 563 11652 
	564 11634 564 11623 563 11614 561 11606 558 11599 
	554 11593 551 11589 547 11586 543 11584 537 11582 
	532 11582 532 11582
	 0  0  -1  -1  -1  0  0  -1 
	 -1  -1  0  0  -1  -1  -1  0 
	 0  -1  -1  -1  0  0  -1  -1 
	 -1  0  0  -1  -1  -1  0  0
# spline
3 4 0 0 0 0 893 0 20 4.0 0 0 0 22
	532 11593 539 11594 545 11599 548 11607 551 11619 
	552 11633 551 11648 548 11660 545 11668 539 11673 
	532 11675 525 11673 519 11668 516 11660 513 11648 
	513 11634 513 11619 516 11607 520 11599 525 11594 
	532 11593 532 11593
	 0  0  -1  -1  -1  0  0  -1 
	 -1  -1  0  0  -1  -1  -1  0 
	 0  -1  -1  -1  0  0
# polyline
2 1 0 0 0 0 892 0 20 4.0 0 0 0 0 0 5
	486 11198 453 11198 453 11207 486 11207 486 11198
# spline
3 4 0 0 0 0 890 0 20 4.0 0 0 0 53
	558 11143 507 11143 500 11196 511 11196 515 11193 
	518 11190 521 11188 525 11187 529 11187 536 11188 
	542 11191 547 11196 549 11202 550 11210 549 11218 
	547 11224 542 11229 536 11232 529 11233 523 11232 
	518 11230 514 11227 511 11223 509 11217 497 11217 
	498 11221 499 11225 500 11227 501 11230 503 11232 
		507 11236 511 11239 517 11242 523 11243 529 11244 
		540 11242 550 11237 557 11230 561 11220 563 11209 
		561 11198 557 11189 550 11182 542 11178 531 11176 
		527 11176 524 11177 520 11178 517 11180 513 11182 
		517 11155 558 11155 558 11143
	 0  0  0  0  0  -1  -1  -1 
	 0  0  -1  -1  -1  0  0  -1 
	 -1  -1  0  0  -1  -1  -1  0 
	 0  0  -1  -1  -1  0  0  -1 
	 -1  -1  0  0  -1  -1  -1  0 
	 0  -1  -1  -1  0  0  -1  -1 
	 -1  0  0  0  0
# spline
3 4 0 0 0 0 889 0 20 4.0 0 0 0 32
	532 10701 526 10701 521 10703 517 10705 513 10708 
	509 10712 506 10718 503 10724 501 10733 500 10742 
	500 10752 501 10770 505 10785 511 10795 520 10801 
	532 10803 543 10801 552 10795 558 10785 562 10771 
	564 10753 563 10742 562 10733 560 10725 558 10718 
	554 10712 551 10708 547 10705 542 10703 537 10701 
	532 10701 532 10701
	 0  0  -1  -1  -1  0  0  -1 
	 -1  -1  0  0  -1  -1  -1  0 
	 0  -1  -1  -1  0  0  -1  -1 
	 -1  0  0  -1  -1  -1  0  0
# spline
3 4 0 0 0 0 887 0 20 4.0 0 0 0 22
	532 10712 539 10713 544 10718 548 10726 550 10737 
	551 10752 550 10767 548 10779 544 10787 539 10792 
	531 10794 524 10792 519 10787 515 10779 513 10767 
	512 10752 513 10738 515 10726 519 10718 525 10713 
	532 10712 532 10712
	 0  0  -1  -1  -1  0  0  -1 
	 -1  -1  0  0  -1  -1  -1  0 
	 0  -1  -1  -1  0  0
# polyline
2 1 0 1 0 0 886 0 -1 4.0 0 0 0 0 0 5
	596 13043 596 10754 3867 10754 3867 13043 596 13043
# spline
3 4 0 0 0 0 885 0 20 4.0 0 0 0 149
	2248 10548 2248 10547 2247 10546 2247 10546 2247 10546 
	2246 10546 2246 10546 2245 10546 2245 10546 2244 10547 
	2243 10549 2241 10551 2239 10554 2236 10557 2234 10560 
	2233 10561 2229 10554 2223 10550 2217 10547 2211 10546 
	2205 10546 2191 10548 2178 10555 2167 10565 2160 10578 
	2157 10591 2158 10599 2161 10606 2165 10611 2170 10615 
	2176 10618 2178 10619 2182 10620 2187 10621 2192 10623 
	2196 10624 2201 10625 2205 10626 2208 10628 2210 10629 
	2213 10631 2214 10632 2215 10634 2216 10637 2217 10641 
	2217 10646 2216 10657 2210 10668 2202 10676 2192 10682 
	2180 10684 2171 10683 2161 10680 2153 10675 2148 10666 
	2146 10655 2146 10652 2146 10650 2147 10648 2147 10646 
	2147 10644 2147 10644 2147 10643 2148 10643 2148 10643 
	2148 10642 2148 10642 2147 10641 2147 10641 2147 10641 
	2146 10641 2145 10641 2144 10641 2144 10641 2143 10642 
	2143 10644 2133 10685 2133 10685 2133 10686 2132 10687 
	2132 10687 2132 10688 2132 10689 2133 10689 2133 10690 
	2134 10690 2134 10690 2135 10690 2135 10689 2135 10689 
	2136 10688 2138 10687 2147 10675 2150 10679 2155 10683 
	2162 10686 2170 10689 2180 10690 2195 10687 2208 10679 
	2219 10668 2227 10655 2229 10640 2229 10635 2228 10630 
	2226 10626 2223 10621 2220 10617 2217 10615 2214 10613 
	2209 10611 2203 10610 2193 10607 2187 10605 2182 10604 
	2179 10603 2177 10601 2175 10600 2173 10597 2171 10595 
	2170 10592 2169 10589 2169 10585 2171 10575 2176 10566 
	2184 10558 2194 10553 2205 10551 2215 10553 2223 10557 
	2229 10563 2232 10571 2233 10582 2233 10585 2233 10588 
	2233 10590 2232 10592 2232 10593 2232 10594 2233 10595 
	2233 10595 2234 10595 2235 10595 2235 10595 2236 10595 
	2236 10594 2237 10593 2237 10591 2248 10548
	 0  0  -1  -1  -1  0  0  -1 
	 -1  -1  0  0  -1  -1  -1  0 
	 0  -1  -1  -1  0  0  -1  -1 
	 -1  0  0  -1  -1  -1  0  0 
	 -1  -1  -1  0  0  -1  -1  -1 
	 0  0  -1  -1  -1  0  0  -1 
	 -1  -1  0  0  -1  -1  -1  0 
	 0  -1  -1  -1  0  0  -1  -1 
	 -1  0  0  -1  -1  -1  0  0 
	 -1  -1  -1  0  0  0  -1  -1 
	 -1  0  0  -1  -1  -1  0  0 
	 -1  -1  -1  0  0  0  -1  -1 
	 -1  0  0  -1  -1  -1  0  0 
	 -1  -1  -1  0  0  -1  -1  -1 
	 0  0  -1  -1  -1  0  0  -1 
	 -1  -1  0  0  -1  -1  -1  0 
	 0  -1  -1  -1  0  0  -1  -1 
	 -1  0  0  -1  -1  -1  0  0 
	 -1  -1  -1  0  0
# spline
3 4 0 0 0 0 883 0 20 4.0 0 0 0 107
	2275 10671 2281 10672 2286 10675 2289 10679 2292 10685 
	2292 10693 2291 10701 2289 10707 2285 10711 2280 10713 
	2276 10714 2271 10714 2266 10713 2262 10711 2257 10708 
	2254 10704 2257 10704 2259 10703 2261 10702 2262 10700 
	2262 10697 2262 10695 2261 10693 2259 10691 2257 10690 
	2255 10690 2253 10690 2251 10691 2249 10692 2248 10695 
	2248 10697 2249 10704 2253 10710 2260 10715 2267 10717 
	2276 10718 2286 10717 2294 10713 2301 10707 2305 10700 
	2306 10693 2305 10686 2302 10680 2298 10675 2292 10671 
	2284 10669 2290 10666 2295 10662 2299 10657 2301 10651 
	2302 10645 2301 10639 2297 10634 2292 10631 2284 10628 
	2276 10627 2269 10628 2262 10631 2256 10634 2253 10639 
	2252 10645 2252 10648 2253 10650 2255 10651 2256 10652 
	2259 10652 2261 10652 2263 10651 2264 10649 2265 10648 
	2265 10645 2265 10643 2264 10641 2262 10639 2260 10639 
	2258 10638 2262 10635 2266 10633 2270 10631 2274 10631 
	2276 10631 2279 10631 2282 10632 2286 10634 2289 10639 
	2290 10645 2289 10650 2288 10655 2287 10658 2285 10661 
	2284 10663 2282 10664 2279 10666 2277 10666 2273 10667 
	2269 10667 2268 10667 2267 10668 2266 10668 2265 10668 
	2265 10669 2265 10670 2266 10671 2267 10671 2268 10671 
	2269 10671 2275 10671
	 0  0  -1  -1  -1  0  0  -1 
	 -1  -1  0  0  -1  -1  -1  0 
	 0  -1  -1  -1  0  0  -1  -1 
	 -1  0  0  -1  -1  -1  0  0 
	 -1  -1  -1  0  0  -1  -1  -1 
	 0  0  -1  -1  -1  0  0  -1 
	 -1  -1  0  0  -1  -1  -1  0 
	 0  -1  -1  -1  0  0  -1  -1 
	 -1  0  0  -1  -1  -1  0  0 
	 -1  -1  -1  0  0  -1  -1  -1 
	 0  0  -1  -1  -1  0  0  -1 
	 -1  -1  0  0  -1  -1  -1  0 
	 0  -1  -1  -1  0  0  -1  -1 
	 -1  0  0
# spline
3 4 0 0 0 0 882 0 20 4.0 0 0 0 43
	2354 10631 2354 10629 2354 10628 2353 10628 2352 10627 
	2350 10627 2347 10630 2343 10633 2338 10634 2332 10635 
	2325 10636 2325 10640 2328 10640 2331 10640 2335 10639 
	2339 10638 2344 10636 2344 10704 2343 10707 2343 10709 
	2341 10710 2337 10711 2331 10711 2326 10711 2326 10715 
	2330 10715 2335 10715 2340 10715 2344 10715 2349 10715 
		2353 10715 2358 10715 2363 10715 2368 10715 2371 10715 
		2371 10711 2367 10711 2361 10711 2357 10710 2355 10709 
	2354 10707 2354 10704 2354 10631
	 0  0  -1  -1  -1  0  0  -1 
	 -1  -1  0  0  0  -1  -1  -1 
	 0  0  0  -1  -1  -1  0  0 
	 0  0  -1  -1  -1  0  0  -1 
	 -1  -1  0  0  0  0  -1  -1 
	 -1  0  0
# spline
3 4 0 0 0 0 881 0 20 4.0 0 0 0 67
	128 12223 134 12238 144 12250 156 12259 170 12265 
	184 12267 196 12265 205 12261 212 12254 216 12246 
	217 12237 214 12224 204 12213 191 12205 175 12199 
	159 12197 149 12198 140 12201 133 12204 128 12208 
	123 12211 117 12216 110 12221 103 12226 95 12229 
	89 12230 87 12230 84 12229 82 12227 80 12223 
	80 12219 80 12215 81 12212 82 12209 84 12206 
	85 12203 86 12201 87 12200 88 12198 89 12196 
	89 12194 89 12192 87 12190 86 12188 84 12187 
	82 12187 80 12187 78 12188 78 12190 77 12193 
	76 12197 75 12202 74 12205 74 12208 74 12210 
	74 12212 74 12216 75 12222 78 12228 84 12233 
	94 12235 100 12235 107 12233 113 12230 121 12227 
	128 12223 128 12223
	 0  0  -1  -1  -1  0  0  -1 
	 -1  -1  0  0  -1  -1  -1  0 
	 0  -1  -1  -1  0  0  -1  -1 
	 -1  0  0  -1  -1  -1  0  0 
	 -1  -1  -1  0  0  -1  -1  -1 
	 0  0  -1  -1  -1  0  0  -1 
	 -1  -1  0  0  -1  -1  -1  0 
	 0  -1  -1  -1  0  0  -1  -1 
	 -1  0  0
# spline
3 4 0 0 0 0 879 0 20 4.0 0 0 0 22
	132 12221 140 12217 147 12214 153 12212 160 12211 
	167 12211 177 12212 190 12215 201 12220 210 12227 
	213 12237 213 12242 210 12247 206 12251 199 12254 
	190 12255 179 12254 166 12251 152 12245 140 12235 
	132 12221 132 12221
	 0  0  -1  -1  -1  0  0  -1 
	 -1  -1  0  0  -1  -1  -1  0 
	 0  -1  -1  -1  0  0
# spline
3 4 0 0 0 0 878 0 20 4.0 0 0 0 107
	69 12147 70 12142 72 12137 77 12133 83 12131 
	90 12131 99 12132 105 12134 109 12138 111 12143 
	112 12147 111 12152 110 12156 109 12161 106 12165 
	102 12169 102 12166 101 12164 99 12162 97 12161 
	95 12161 92 12161 90 12162 89 12164 88 12166 
	88 12168 88 12170 89 12172 90 12174 92 12175 
	95 12175 102 12174 108 12170 112 12163 115 12155 
	116 12147 115 12137 111 12128 105 12122 98 12118 
	90 12117 84 12118 78 12121 73 12125 69 12131 
	66 12139 64 12133 60 12128 55 12124 49 12122 
	43 12121 37 12122 32 12126 28 12131 26 12138 
	25 12146 26 12154 28 12161 32 12167 37 12170 
	43 12171 45 12171 47 12170 49 12168 50 12166 
	50 12164 49 12162 49 12160 47 12159 45 12158 
	43 12158 40 12158 38 12159 37 12161 36 12163 
	36 12165 33 12161 30 12157 29 12153 29 12149 
	28 12147 29 12144 30 12140 32 12137 36 12134 
	43 12133 48 12134 52 12135 56 12136 58 12138 
	60 12139 62 12141 63 12144 64 12146 65 12150 
	65 12154 65 12155 65 12156 66 12157 66 12157 
	67 12158 68 12157 68 12157 69 12156 69 12155 
	69 12154 69 12147
	 0  0  -1  -1  -1  0  0  -1 
	 -1  -1  0  0  -1  -1  -1  0 
	 0  -1  -1  -1  0  0  -1  -1 
	 -1  0  0  -1  -1  -1  0  0 
	 -1  -1  -1  0  0  -1  -1  -1 
	 0  0  -1  -1  -1  0  0  -1 
	 -1  -1  0  0  -1  -1  -1  0 
	 0  -1  -1  -1  0  0  -1  -1 
	 -1  0  0  -1  -1  -1  0  0 
	 -1  -1  -1  0  0  -1  -1  -1 
	 0  0  -1  -1  -1  0  0  -1 
	 -1  -1  0  0  -1  -1  -1  0 
	 0  -1  -1  -1  0  0  -1  -1 
	 -1  0  0
# spline
3 4 0 0 0 0 877 0 20 4.0 0 0 0 33
	19 12049 18 12048 18 12048 17 12048 17 12048 
	17 12048 16 12048 15 12049 14 12049 14 12050 
	14 12051 14 12052 15 12053 15 12054 16 12054 
	17 12054 141 12102 142 12102 142 12103 143 12103 
	143 12103 143 12103 144 12103 145 12102 146 12101 
	146 12101 146 12100 146 12099 146 12098 145 12097 
	144 12097 143 12096 19 12049
	 0  0  -1  -1  -1  0  0  -1 
	 -1  -1  0  0  -1  -1  -1  0 
	 0  0  -1  -1  -1  0  0  -1 
	 -1  -1  0  0  -1  -1  -1  0 
	 0
# spline
3 4 0 0 0 0 876 0 20 4.0 0 0 0 72
	86 12003 85 12001 83 11999 81 11997 79 11995 
	78 11993 73 11988 69 11984 63 11980 58 11978 
	51 11977 42 11978 35 11983 30 11989 26 11997 
	25 12007 26 12016 30 12023 35 12028 42 12032 
	49 12033 52 12032 54 12031 56 12029 56 12027 
	56 12026 56 12024 55 12022 54 12021 52 12020 
	49 12019 46 12020 44 12022 43 12024 42 12026 
	42 12027 37 12024 34 12021 31 12016 30 12012 
	29 12008 31 12001 34 11996 39 11993 44 11990 
	51 11990 59 11991 66 11994 74 11999 82 12006 
	91 12015 108 12031 109 12032 109 12033 110 12033 
	111 12033 113 12033 113 11981 89 11977 89 11981 
	91 11981 94 11982 97 11982 99 11983 101 11984 
		102 11986 102 11988 102 11992 102 11995 102 11997 
		102 12021 86 12003
	 0  0  -1  -1  -1  0  0  -1 
	 -1  -1  0  0  -1  -1  -1  0 
	 0  -1  -1  -1  0  0  -1  -1 
	 -1  0  0  -1  -1  -1  0  0 
	 -1  -1  -1  0  0  -1  -1  -1 
	 0  0  -1  -1  -1  0  0  -1 
	 -1  -1  0  0  0  -1  -1  -1 
	 0  0  0  0  0  -1  -1  -1 
	 0  0  -1  -1  -1  0  0  0
# spline
3 4 0 0 0 0 874 0 20 4.0 0 0 0 42
	222 12124 214 12124 207 12125 201 12126 195 12127 
	190 12130 184 12134 180 12138 178 12144 176 12149 
	176 12153 177 12162 180 12169 185 12173 189 12176 
	192 12178 198 12180 205 12182 211 12183 217 12183 
	222 12183 227 12183 234 12183 241 12181 248 12180 
	254 12176 259 12172 263 12168 265 12163 266 12158 
	267 12153 266 12149 265 12144 263 12139 258 12134 
	252 12129 246 12127 239 12125 233 12124 227 12124 
	222 12124 222 12124
	 0  0  -1  -1  -1  0  0  -1 
	 -1  -1  0  0  -1  -1  -1  0 
	 0  -1  -1  -1  0  0  -1  -1 
	 -1  0  0  -1  -1  -1  0  0 
	 -1  -1  -1  0  0  -1  -1  -1 
	 0  0
# spline
3 4 0 0 0 0 872 0 20 4.0 0 0 0 42
	263 12153 262 12157 261 12160 258 12164 254 12168 
	247 12170 242 12171 236 12171 230 12171 225 12171 
	220 12171 215 12171 209 12171 204 12171 199 12171 
	194 12170 188 12167 183 12164 181 12160 180 12156 
	179 12153 180 12150 181 12147 184 12143 188 12139 
	194 12137 198 12136 204 12136 209 12136 215 12136 
	220 12136 225 12136 231 12136 237 12136 242 12136 
	247 12137 254 12139 259 12143 261 12147 262 12150 
	263 12153 263 12153
	 0  0  -1  -1  -1  0  0  -1 
	 -1  -1  0  0  -1  -1  -1  0 
	 0  -1  -1  -1  0  0  -1  -1 
	 -1  0  0  -1  -1  -1  0  0 
	 -1  -1  -1  0  0  -1  -1  -1 
	 0  0
# spline
3 4 0 0 0 0 871 0 20 4.0 0 0 0 49
	234 12060 234 12021 234 12020 234 12019 233 12018 
	232 12017 231 12017 229 12017 228 12018 228 12019 
	228 12020 228 12021 228 12060 189 12060 187 12060 
	186 12060 185 12061 184 12062 184 12063 184 12065 
	185 12066 186 12066 187 12067 189 12067 228 12067 
	228 12106 228 12107 228 12108 228 12109 229 12110 
	231 12110 232 12110 233 12109 234 12108 234 12107 
	234 12106 234 12067 273 12067 274 12067 275 12066 
	276 12066 277 12065 278 12063 277 12062 276 12061 
	275 12060 274 12060 273 12060 234 12060
	 0  0  0  -1  -1  -1  0  0 
	 -1  -1  -1  0  0  0  0  -1 
	 -1  -1  0  0  -1  -1  -1  0 
	 0  0  0  -1  -1  -1  0  0 
	 -1  -1  -1  0  0  0  0  -1 
	 -1  -1  0  0  -1  -1  -1  0 
	 0
# polyline
2 1 0 0 0 0 870 0 20 4.0 0 0 0 0 0 9
	265 11846 257 11846 257 11865 73 11865 73 11846 
	66 11846 66 11873 265 11873 265 11846
# spline
3 4 0 0 0 0 869 0 20 4.0 0 0 0 22
	110 11779 101 11781 93 11785 87 11790 84 11798 
	82 11807 84 11815 87 11823 93 11829 101 11833 
	110 11834 118 11833 126 11829 132 11823 135 11815 
	137 11807 135 11798 132 11790 126 11785 118 11781 
	110 11779 110 11779
	 0  0  -1  -1  -1  0  0  -1 
	 -1  -1  0  0  -1  -1  -1  0 
	 0  -1  -1  -1  0  0
# spline
3 4 0 0 0 0 867 0 20 4.0 0 0 0 22
	131 11807 130 11813 127 11819 122 11824 116 11827 
	110 11828 103 11827 97 11824 92 11819 89 11813 
	88 11807 89 11800 92 11794 97 11790 103 11787 
	110 11786 116 11787 122 11790 127 11794 130 11800 
	131 11807 131 11807
	 0  0  -1  -1  -1  0  0  -1 
	 -1  -1  0  0  -1  -1  -1  0 
	 0  -1  -1  -1  0  0
# polyline
2 1 0 0 0 0 866 0 20 4.0 0 0 0 0 0 9
	66 11732 66 11759 73 11759 73 11739 257 11739 
	257 11759 265 11759 265 11732 66 11732
